{
  "openapi": "3.0.2",
  "info": {
    "title": "pdfGenerator",
    "version": "1.0.0"
  },
  "paths": {
    "/clients": {
      "post": {
        "requestBody": {
          "content": {
            "application/json": {
              "schema": {
                "type": "object",
                "required": [
                  "name",
                  "clients"
                ],
                "properties": {
                  "name": {
                    "type": "string",
                    "minLength": 3,
                    "maxLength": 10
                  },
                  "clients": {
                    "type": "array",
                    "minItems": 1,
                    "items": {
                      "type": "object",
                      "required": [
                        "name",
                        "age"
                      ],
                      "properties": {
                        "name": {
                          "type": "string",
                          "minLength": 3,
                          "maxLength": 10
                        },
                        "age": {
                          "type": "number",
                          "format": "float",
                          "minimum": 0,
                          "maximum": 110
                        }
                      }
                    }
                  }
                }
              }
            }
          },
          "required": true
        },
        "tags": [
          "pdfGenerator"
        ],
        "responses": {
          "200": {
            "description": "Creates pdf and returns its filename",
            "content": {
              "application/json": {
                "schema": {
                  "properties": {
                    "filename": {
                      "type": "string"
                    }
                  }
                }
              }
            }
          },
          "400": {
            "description": "Data validation failed"
          }
        }
      },
      "get": {
        "parameters": [
          {
            "name": "filename",
            "in": "query",
            "schema": {
              "type": "string",
              "minLength": 15,
              "maxLength": 20
            },
            "required": true
          }
        ],
        "tags": [
          "pdfGenerator"
        ],
        "responses": {
          "200": {
            "description": "Returns pdf by filename",
            "content": {
              "application/json": {
                "schema": {
                  "properties": {}
                }
              }
            }
          },
          "400": {
            "description": "Data validation failed"
          }
        }
      }
    }
  }
}